2-ggplot
…
Attaching package: haven

The following object is masked from package:lubridate:

    hms

ohsCol2 <- readShapeSpatial("/Users/david_salazarv/Desktop/R Folder/COL_adm/COL_adm1.shp")
ohsColI2 <- fortify(ohsCol2)

Regions defined for each Polygons

grupo2 <- data.frame(id = unique(ohsColI2[ , c("id")]))
(ohsColI2 <- as_tibble(ohsColI2))

# A tibble: 148,587 x 7
        long       lat order  hole  piece    id  group
       <dbl>     <dbl> <int> <lgl> <fctr> <chr> <fctr>
1  -69.43138 -1.078474     1 FALSE      1     0    0.1
2  -69.42591 -1.096313     2 FALSE      1     0    0.1
3  -69.42345 -1.104404     3 FALSE      1     0    0.1
4  -69.41992 -1.111588     4 FALSE      1     0    0.1
5  -69.41006 -1.131676     5 FALSE      1     0    0.1
6  -69.39285 -1.148357     6 FALSE      1     0    0.1
7  -69.37515 -1.173309     7 FALSE      1     0    0.1
8  -69.37321 -1.193295     8 FALSE      1     0    0.1
9  -69.37473 -1.205892     9 FALSE      1     0    0.1
10 -69.37823 -1.235153    10 FALSE      1     0    0.1
# ... with 148,577 more rows
…
depto <- read_dta("/Users/david_salazarv/Desktop/Stata Folder/trans.dta")
depto %>%
  arrange(id)

# A tibble: 33 x 2
   cdigodane    id
       <int> <int>
1         91     1
2          5     2
3         81     3
4          8     4
5         18     5
6         19     6
7         20     7
8         27     8
9         23     9
10        95    10
# ... with 23 more rows

as_tibble(ohsColI2)

# A tibble: 148,587 x 7
        long       lat order  hole  piece    id  group
       <dbl>     <dbl> <int> <lgl> <fctr> <chr> <fctr>
1  -69.43138 -1.078474     1 FALSE      1     0    0.1
2  -69.42591 -1.096313     2 FALSE      1     0    0.1
3  -69.42345 -1.104404     3 FALSE      1     0    0.1
4  -69.41992 -1.111588     4 FALSE      1     0    0.1
5  -69.41006 -1.131676     5 FALSE      1     0    0.1
6  -69.39285 -1.148357     6 FALSE      1     0    0.1
7  -69.37515 -1.173309     7 FALSE      1     0    0.1
8  -69.37321 -1.193295     8 FALSE      1     0    0.1
9  -69.37473 -1.205892     9 FALSE      1     0    0.1
10 -69.37823 -1.235153    10 FALSE      1     0    0.1
# ... with 148,577 more rows

total <- ohsColI2 %>%
  mutate(id = as.integer(id)) %>%
  left_join(depto, by = "id") %>%
  as_tibble()
total

# A tibble: 148,587 x 8
        long       lat order  hole  piece    id  group cdigodane
       <dbl>     <dbl> <int> <lgl> <fctr> <int> <fctr>     <int>
1  -69.43138 -1.078474     1 FALSE      1     0    0.1        NA
2  -69.42591 -1.096313     2 FALSE      1     0    0.1        NA
3  -69.42345 -1.104404     3 FALSE      1     0    0.1        NA
4  -69.41992 -1.111588     4 FALSE      1     0    0.1        NA
5  -69.41006 -1.131676     5 FALSE      1     0    0.1        NA
6  -69.39285 -1.148357     6 FALSE      1     0    0.1        NA
7  -69.37515 -1.173309     7 FALSE      1     0    0.1        NA
8  -69.37321 -1.193295     8 FALSE      1     0    0.1        NA
9  -69.37473 -1.205892     9 FALSE      1     0    0.1        NA
10 -69.37823 -1.235153    10 FALSE      1     0    0.1        NA
# ... with 148,577 more rows

desarrollo <- read_dta("/Users/david_salazarv/Downloads/Desarrollo.dta")
d2 <- desarrollo %>%
  group_by(departam) %>%
  summarise(ing_per_capita = mean(ingresos_hogar_jefe)) %>%
  arrange(departam)
d2

# A tibble: 29 x 2
   departam ing_per_capita
      <int>          <dbl>
1         5      1091704.0
2         8       686628.4
3        11       872260.4
4        13       562415.1
5        15       654817.9
6        17       821821.6
7        19       367892.3
8        20       625414.5
9        23       630330.3
10       25       836275.2
# ... with 19 more rows

porfin <- total %>%
  left_join(d2, by = c("cdigodane"="departam"))
porfin <- porfin %>%
  arrange(ing_per_capita) %>%
  mutate(id = as.character(id))
porfin

# A tibble: 148,587 x 9
       long      lat order  hole  piece    id  group cdigodane ing_per_capita
      <dbl>    <dbl> <int> <lgl> <fctr> <chr> <fctr>     <int>          <dbl>
1  -74.6950 5.752699     1 FALSE      1     6    6.1        19       367892.3
2  -74.6847 5.751001     2 FALSE      1     6    6.1        19       367892.3
3  -74.6766 5.758399     3 FALSE      1     6    6.1        19       367892.3
4  -74.6754 5.746299     4 FALSE      1     6    6.1        19       367892.3
5  -74.6731 5.739900     5 FALSE      1     6    6.1        19       367892.3
6  -74.6766 5.738801     6 FALSE      1     6    6.1        19       367892.3
7  -74.6823 5.729001     7 FALSE      1     6    6.1        19       367892.3
8  -74.6835 5.725001     8 FALSE      1     6    6.1        19       367892.3
9  -74.6852 5.717500     9 FALSE      1     6    6.1        19       367892.3
10 -74.6789 5.710499    10 FALSE      1     6    6.1        19       367892.3
# ... with 148,577 more rows
…
